{
  "id": "shadows-of-the-northern-woods",
  "title": "Shadows of the Northern Woods",
  "description": "The beginning adventure included with the core rules of Against the Darkmaster.",
  "version": "2.02",
  "compatibility": {
    "minimum": "10",
    "verified": "11",
    "maximum": "12"
  },
  "authors": [
    {
      "name": "Kergan",
      "discord": "Kergan (-5 EST)#1380",
      "flags": {}
    },
    {
      "name": "James Huddleston",
      "url": "https://gitlab.com/jbhuddleston/vsd",
      "email": "jbhuddleston@gmail.com",
      "discord": "JamesH (UTC-3/4)#9963",
      "flags": {}
    }
  ],
  "url": "https://www.vsdarkmaster.com/",
  "manifest": "https://gitlab.com/jbhuddleston/shadows-of-the-northern-woods/-/raw/main/module.json",
  "download": "https://gitlab.com/jbhuddleston/shadows-of-the-northern-woods/-/archive/main/shadows-of-the-northern-woods-main.zip",
  "packs": [
    {
      "name": "shadows-of-the-northern-woods",
      "label": "Shadows of the Northern Woods Adventure",
      "system": "vsd",
      "path": "packs/shadows-of-the-northern-woods.db",
      "type": "Adventure",
      "private": false,
      "flags": {}
    }
  ],
  "relationships": {
    "requires": [
      {
        "id": "stairways",
        "type": "module",
        "manifest": "https://gitlab.com/SWW13/foundryvtt-stairways/-/raw/main/module.json",
        "compatibility": {}
      }
    ]
  }
}